%YAML 1.1
%TAG !u! tag:unity3d.com,2011:
--- !u!1 &100000
GameObject:
  m_ObjectHideFlags: 0
  m_PrefabParentObject: {fileID: 0}
  m_PrefabInternal: {fileID: 100100000}
  serializedVersion: 5
  m_Component:
  - component: {fileID: 400000}
  - component: {fileID: 11400010}
  - component: {fileID: 11400008}
  - component: {fileID: 11400006}
  - component: {fileID: 11400002}
  - component: {fileID: 11400000}
  - component: {fileID: 11400004}
  - component: {fileID: 114002931966520902}
  - component: {fileID: 114449996766896050}
  m_Layer: 0
  m_Name: FakeInputGenerator
  m_TagString: Untagged
  m_Icon: {fileID: 0}
  m_NavMeshLayer: 0
  m_StaticEditorFlags: 0
  m_IsActive: 1
--- !u!4 &400000
Transform:
  m_ObjectHideFlags: 1
  m_PrefabParentObject: {fileID: 0}
  m_PrefabInternal: {fileID: 100100000}
  m_GameObject: {fileID: 100000}
  m_LocalRotation: {x: 0, y: 0, z: 0, w: 1}
  m_LocalPosition: {x: 0, y: 0, z: 0}
  m_LocalScale: {x: 1, y: 1, z: 1}
  m_Children: []
  m_Father: {fileID: 0}
  m_RootOrder: 0
  m_LocalEulerAnglesHint: {x: 0, y: 0, z: 0}
--- !u!114 &11400000
MonoBehaviour:
  m_ObjectHideFlags: 1
  m_PrefabParentObject: {fileID: 0}
  m_PrefabInternal: {fileID: 100100000}
  m_GameObject: {fileID: 100000}
  m_Enabled: 1
  m_EditorHideFlags: 0
  m_Script: {fileID: 11500000, guid: e00a390417897c340bbf8fd339cfe346, type: 3}
  m_Name: 
  m_EditorClassIdentifier: 
--- !u!114 &11400002
MonoBehaviour:
  m_ObjectHideFlags: 1
  m_PrefabParentObject: {fileID: 0}
  m_PrefabInternal: {fileID: 100100000}
  m_GameObject: {fileID: 100000}
  m_Enabled: 1
  m_EditorHideFlags: 0
  m_Script: {fileID: 11500000, guid: 8281800407ed5d1408686832a1da2974, type: 3}
  m_Name: 
  m_EditorClassIdentifier: 
  rotationSmoothFrameCount: 5
  rotationSmoothing: 0
--- !u!114 &11400004
MonoBehaviour:
  m_ObjectHideFlags: 1
  m_PrefabParentObject: {fileID: 0}
  m_PrefabInternal: {fileID: 100100000}
  m_GameObject: {fileID: 100000}
  m_Enabled: 0
  m_EditorHideFlags: 0
  m_Script: {fileID: 11500000, guid: f0e82b68544a0114a898971502a5d596, type: 3}
  m_Name: 
  m_EditorClassIdentifier: 
  maxSwipeDuration: 0.25
  minSpeed: 150
  minDistance: 15
  maxDirectionChange: 35
  onlyFireWhenLiftCursor: 0
  enableMultiSwipe: 1
  minDurationBetweenSwipe: 0.5
--- !u!114 &11400006
MonoBehaviour:
  m_ObjectHideFlags: 1
  m_PrefabParentObject: {fileID: 0}
  m_PrefabInternal: {fileID: 100100000}
  m_GameObject: {fileID: 100000}
  m_Enabled: 1
  m_EditorHideFlags: 0
  m_Script: {fileID: 11500000, guid: 6cf2a06dda4e473448c1440db3cdf92d, type: 3}
  m_Name: 
  m_EditorClassIdentifier: 
  minDragDistance: 15
  enableMultiDrag: 0
  fireOnDraggingWhenNotMoving: 0
--- !u!114 &11400008
MonoBehaviour:
  m_ObjectHideFlags: 1
  m_PrefabParentObject: {fileID: 0}
  m_PrefabInternal: {fileID: 100100000}
  m_GameObject: {fileID: 100000}
  m_Enabled: 1
  m_EditorHideFlags: 0
  m_Script: {fileID: 11500000, guid: 83e308dccfc7b864bb588b7090a90358, type: 3}
  m_Name: 
  m_EditorClassIdentifier: 
  enableMultiTapFilter: 0
  maxTapDisplacementAllowance: 5
  shortTapTime: 0.2
  longTapTime: 0.8
  multiTapInterval: 0.35
  multiTapPosSpacing: 20
  maxMultiTapCount: 2
  chargeMode: 0
  minChargeTime: 0.15
  maxChargeTime: 2
  maxFingerGroupDist: 200
--- !u!114 &11400010
MonoBehaviour:
  m_ObjectHideFlags: 1
  m_PrefabParentObject: {fileID: 0}
  m_PrefabInternal: {fileID: 100100000}
  m_GameObject: {fileID: 100000}
  m_Enabled: 1
  m_EditorHideFlags: 0
  m_Script: {fileID: 11500000, guid: 4644228101ae7244b98ea543054eb3e3, type: 3}
  m_Name: 
  m_EditorClassIdentifier: 
  useDPIScaling: 1
  defaultDPI: 441
--- !u!1001 &100100000
Prefab:
  m_ObjectHideFlags: 1
  serializedVersion: 2
  m_Modification:
    m_TransformParent: {fileID: 0}
    m_Modifications: []
    m_RemovedComponents: []
  m_ParentPrefab: {fileID: 0}
  m_RootGameObject: {fileID: 100000}
  m_IsPrefabParent: 1
--- !u!114 &114002931966520902
MonoBehaviour:
  m_ObjectHideFlags: 1
  m_PrefabParentObject: {fileID: 0}
  m_PrefabInternal: {fileID: 100100000}
  m_GameObject: {fileID: 100000}
  m_Enabled: 1
  m_EditorHideFlags: 0
  m_Script: {fileID: 11500000, guid: 24d8f2e7e2264234eb49debd605beda1, type: 3}
  m_Name: 
  m_EditorClassIdentifier: 
--- !u!114 &114449996766896050
MonoBehaviour:
  m_ObjectHideFlags: 1
  m_PrefabParentObject: {fileID: 0}
  m_PrefabInternal: {fileID: 100100000}
  m_GameObject: {fileID: 100000}
  m_Enabled: 1
  m_EditorHideFlags: 0
  m_Script: {fileID: 11500000, guid: 6535a91e1c5ff594a8a84a4774f88e18, type: 3}
  m_Name: 
  m_EditorClassIdentifier: 
